…
The second step was to identifying "sentences" among lines. The idea here was that a sentence starts either by one or two digits following by a dot and a space (question titles) or by an uppercase letter following by a lowercase letter or a space (answer choices). If a question title or an answer choice spreads on several lines of the `PDF`, I wanted to be able to consider all lines in the same sentence. I created a `sentences_group` column by a) detecting each text box starting a sentence using [regular expressions](https://stringr.tidyverse.org/articles/regular-expressions.html), b) applying a cumulative sum on the boolean so each line belonging to the same sentence have the same sum value and c) transforming to string by adding a prefix. This column helped me collapsing sentences and removing duplicated ones.


```r
metapdf <- metapdf %>%
  mutate(sentences_group = str_detect(lines,"(^\\d{1,2}\\.\\s|^[:upper:]([:lower:]|\\s))") %>% 
           cumsum() %>% 
           paste0("sent", .)) %>%
  group_by(sentences_group) %>%
  mutate(sentences = str_c(lines, collapse = " ")) %>%
  distinct(sentences_group, .keep_all = TRUE) %>%
  ungroup()
select(metapdf, lines, sentences_group, sentences)
## # A tibble: 44 x 3
##    lines                     sentences_group sentences                     
##    <chr>                     <chr>           <chr>                         
##  1 Event Timing: January 4t~ sent1           Event Timing: January 4th-6th~
##  2 Event Address: 123 Your ~ sent2           Event Address: 123 Your Stree~
##  3 Contact us at (123) 456-~ sent3           Contact us at (123) 456-7890 ~
##  4 1. Name *                 sent4           1. Name *                     
##  5 2. Email *                sent5           2. Email *                    
##  6 3. Organization *         sent6           3. Organization *             
##  7 4. What days will you at~ sent7           4. What days will you attend?~
##  8 Check all that apply.     sent8           Check all that apply.         
##  9 Day 1                     sent9           Day 1                         
## 10 Day 2                     sent10          Day 2                         
## # ... with 34 more rows
```
…
